{
	"id" : "601456566464",
	"name" : "HTML",
	"description" : "Learn the basics and how to code.",
	"price" : 1000,
	"isActive" : true,
	"slots" : 20,
	"enrollees" : ["507f1f777bcde7999011"],
	"date" : "2021-03-15"
}
{
	"id" : "602454574146",
	"name" : "CSS",
	"description" : "Learn to styles.",
	"price" : 2000,
	"isActive" : false,
	"slots" : 20,
	"enrollees" : ["507f1f777bcde7999011"],
	"date" : "2021-03-15"
}

{
	"id" : "602454574147",
	"name" : "JavaScript",
	"description" : "Makes website fun and interactive.",
	"price" : 4000,
	"isActive" : false,
	"slots" : 20,
	"enrollees" : [],
	"date" : "2021-10-15"
}
